<svg xmlns="http://www.w3.org/2000/svg" width="16" height="14" viewBox="0 0 16 14">
  <text id="Action_1_2" data-name="Action 1 &amp; 2" transform="translate(1 12)" fill="#1f2a49" font-size="14" font-family="FontAwesome5ProRegular, "Font Awesome 5 Pro""><tspan x="0" y="0">comment</tspan></text>
</svg>
