<svg xmlns="http://www.w3.org/2000/svg" width="21" height="21" viewBox="0 0 21 21">
  <text id="home" transform="translate(0 18)" fill="#fff" font-size="20" font-family="FontAwesome5ProLight, "Font Awesome 5 Pro""><tspan x="0" y="0">home</tspan></text>
</svg>
