<svg xmlns="http://www.w3.org/2000/svg" width="26.265" height="16.732" viewBox="0 0 26.265 16.732">
  <g id="Grupo_284" data-name="Grupo 284" transform="translate(1 1)">
    <line id="Línea_19" data-name="Línea 19" x2="12.999" transform="translate(11.266 0)" fill="none" stroke="#fff" stroke-linecap="round" stroke-width="2"/>
    <line id="Línea_20" data-name="Línea 20" x2="24.265" transform="translate(0 7.799)" fill="none" stroke="#fff" stroke-linecap="round" stroke-width="2"/>
    <line id="Línea_21" data-name="Línea 21" x2="18.199" transform="translate(6.066 14.732)" fill="none" stroke="#fff" stroke-linecap="round" stroke-width="2"/>
  </g>
</svg>
